<?xml version="1.0" encoding="utf-8"?>
<!-- Generator: Adobe Illustrator 21.1.0, SVG Export Plug-In . SVG Version: 6.00 Build 0)  -->
<svg version="1.1" id="Capa_1" xmlns="http://www.w3.org/2000/svg" xmlns:xlink="http://www.w3.org/1999/xlink" x="0px" y="0px"
	 viewBox="0 0 499.4 499.4" style="enable-background:new 0 0 499.4 499.4;" xml:space="preserve">
<g>
	<g>
		<path d="M415.5,419.8c-7.6-20.8-25.9-36-47.7-39.7l-71.4-11.9c21.5-8.9,39.3-24.8,50.9-44.7h14.3c14.5,0,26.4-11.8,26.4-26.4
			c14.5,0,26.4-11.8,26.4-26.4v-35.2c0-11.5-7.4-21.1-17.6-24.8v-28C396.7,105.1,333.6,42,256,42s-140.7,63.1-140.7,140.7v28
			c-10.2,3.6-17.6,13.3-17.6,24.8v35.2c0,14.5,11.8,26.4,26.4,26.4h29.9c8.3,32.2,31.4,58.5,61.7,71.1l-71.4,11.9
			c-21.9,3.6-40.2,18.9-47.7,39.7l-28.9,79.6h377L415.5,419.8z M323.7,390.6L304.4,442l-36.2-24.2l21.9-32.8L323.7,390.6z
			 M256,404.4l-20.1-30.1c6.5,1.3,13.2,2,20.1,2s13.6-0.7,20.1-2L256,404.4z M361.6,305.9h-6.2c1-2.9,1.9-5.8,2.7-8.8h12.3
			C370.3,301.9,366.4,305.9,361.6,305.9z M396.7,235.5v35.2c0,4.8-3.9,8.8-8.8,8.8v-26.4h-17.6v26.4h-9.2c0.2-2.9,0.4-5.8,0.4-8.8
			v-44h26.4C392.8,226.7,396.7,230.7,396.7,235.5z M124.1,279.5c-4.9,0-8.8-3.9-8.8-8.8v-35.2c0-4.8,3.9-8.8,8.8-8.8h26.4v44
			c0,3,0.2,5.9,0.4,8.8H124.1z M150.4,191.5v17.6h-17.6v-26.4c0-67.9,55.2-123.1,123.1-123.1s123.1,55.2,123.1,123.1v26.4h-17.6
			v-17.6h-8.8c-31.7,0-61.5-12.3-83.9-34.7L256,143.9l-12.9,12.9c-22.4,22.4-52.2,34.7-83.9,34.7L150.4,191.5L150.4,191.5z
			 M168,270.7v-61.9c33.1-2.1,63.9-16,87.5-39.6l0.4-0.4l0.4,0.4c23.6,23.6,54.4,37.5,87.5,39.6v61.8c0,12.5-2.7,24.4-7.4,35.2h-47
			c-3.6-10.2-13.3-17.6-24.8-17.6h-17.6c-14.5,0-26.4,11.8-26.4,26.4c0,14.5,11.8,26.4,26.4,26.4h17.6c11.5,0,21.1-7.4,24.8-17.6
			h36.6c-16.1,21.3-41.5,35.2-70.2,35.2C207.5,358.7,168,319.2,168,270.7z M273.6,314.7c0,4.8-3.9,8.8-8.8,8.8h-17.6
			c-4.9,0-8.8-3.9-8.8-8.8s3.9-8.8,8.8-8.8h17.6C269.6,305.9,273.6,309.8,273.6,314.7z M221.9,385l21.9,32.8L207.6,442l-19.3-51.4
			L221.9,385z M370.1,453.3l-17.1,4.3l6.1,24.3H152.9l6.1-24.3l-17.1-4.3l-7.1,28.5H92.6l20.4-56c5.4-14.9,18.5-25.7,34.1-28.4
			l23.5-3.9l28.3,75.3l57.1-38.1l57.1,38.1l28.3-75.3l23.5,3.9c15.6,2.6,28.7,13.5,34.1,28.4l20.4,56h-42.2L370.1,453.3z"/>
	</g>
</g>
</svg>
